<svg xmlns="http://www.w3.org/2000/svg" width="21" height="21" viewBox="0 0 21 21">
    <g fill="none" fill-rule="evenodd" stroke="#000" opacity=".5">
        <path stroke-linecap="round" stroke-linejoin="round" stroke-width="1.116" d="M0 3.344L2.76 7.319 8.181 0" transform="translate(1 1) translate(5 6)"/>
        <path stroke-width=".98" d="M18.62 9.31c0 5.142-4.168 9.31-9.31 9.31S0 14.452 0 9.31 4.168 0 9.31 0s9.31 4.168 9.31 9.31" transform="translate(1 1)"/>
    </g>
</svg>
