<svg xmlns="http://www.w3.org/2000/svg" width="25" height="24" viewBox="0 0 25 24">
    <g fill="none" fill-rule="evenodd" transform="translate(1 1)">
        <path stroke="#27AAE1" stroke-linecap="round" stroke-width="1.188" d="M.792 21.78L23.364 21.78M.396 21.78L.396.396"/>
        <rect width="3.96" height="18.216" x="4.752" fill="#27AAE1" rx=".792"/>
        <rect width="3.96" height="8.712" x="11.088" y="9.504" fill="#27AAE1" rx=".792"/>
        <rect width="3.96" height="14.256" x="17.424" y="3.96" fill="#27AAE1" rx=".792"/>
    </g>
</svg>
