<svg xmlns="http://www.w3.org/2000/svg" width="16" height="20" viewBox="0 0 16 20">
    <g stroke="#000" stroke-width=".5" opacity=".5">
        <path d="M12.532 0H6.205C5.071 0 4.15.931 4.15 2.079v2.93c0 .173.141.314.315.314.174 0 .315-.14.315-.315V2.08c0-.797.639-1.445 1.422-1.445h6.331c.783 0 1.422.648 1.422 1.445v14.58c0 .796-.639 1.444-1.422 1.444H6.205c-.783 0-1.422-.648-1.422-1.444v-2.907c0-.174-.14-.315-.315-.315-.173 0-.315.141-.315.315v2.907c0 1.143.923 2.074 2.052 2.074h6.332c1.134 0 2.052-.931 2.052-2.074V2.079C14.589.931 13.666 0 12.532 0z" transform="translate(1 1)"/>
        <path d="M1.003 9.684H7.48c.174 0 .315-.141.315-.315 0-.174-.141-.315-.315-.315H1.003l1.224-1.449c.074-.086.095-.205.057-.31-.037-.107-.13-.185-.24-.206-.111-.02-.225.02-.298.106L.081 9.162h0c-.009.013-.023.027-.032.04 0 .003-.002.005-.004.005l-.023.045c0 .004 0 .004-.004.009l-.014.045v.009c-.005.033-.005.066 0 .099v.009l.014.045c0 .004 0 .004.004.009.006.016.014.031.023.045 0 .002.002.004.004.004.01.015.02.029.032.041h0l1.665 1.966c.06.07.147.111.238.113.075.001.148-.026.203-.077.064-.054.104-.131.11-.215.008-.083-.02-.166-.074-.23l-1.22-1.44z" transform="translate(1 1)"/>
    </g>
</svg>
