<svg xmlns="http://www.w3.org/2000/svg" width="4" height="22" viewBox="0 0 4 22">
    <g opacity=".5">
        <circle cx="2.04" cy="11.07" r="1.8"/>
        <circle cx="2.04" cy="2.07" r="1.8"/>
        <circle cx="2.04" cy="20.07" r="1.8"/>
    </g>
</svg>
