<svg xmlns="http://www.w3.org/2000/svg" width="18" height="18" viewBox="0 0 18 18">
    <path fill="none" stroke="#000" stroke-width="1.232" d="M12.844 17c-2.087 0-4.59-1.446-7.428-4.297C2.395 9.658.951 7.156 1.001 5.05c.046-1.85 1.252-2.944 2.053-3.688a1.39 1.39 0 011.924.05l2.207 2.229c.246.25.366.6.326.95-.044.351-.206.676-.46.921l-.663.669c-.655.656-.767 1.614-.254 2.132l3.488 3.507c.513.517 1.46.42 2.116-.257l.663-.669c.99-.996 2.241.265 2.65.682l1.536 1.543c.526.524.553 1.372.062 1.93-.797.887-1.936 1.909-3.684 1.951h-.121z"/>
</svg>
