<svg xmlns="http://www.w3.org/2000/svg" width="21" height="21" viewBox="0 0 21 21">
    <g fill="none" fill-rule="evenodd" stroke="#FFF" stroke-width=".98">
        <path d="M18.62 9.31c0 5.142-4.168 9.31-9.31 9.31S0 14.452 0 9.31 4.168 0 9.31 0s9.31 4.168 9.31 9.31" transform="translate(1 1)"/>
        <path stroke-linecap="round" d="M11.76 5.88L11.76 6.86M6.86 5.88L6.86 6.86M12.74 11.76c-2.166 2.613-5.673 2.613-7.84 0" transform="translate(1 1)"/>
    </g>
</svg>
