<svg xmlns="http://www.w3.org/2000/svg" width="22" height="15" viewBox="0 0 22 15">
    <path fill="#FFF" d="M1.732 0h18.536C21.222 0 22 .757 22 1.684v10.98c0 .927-.778 1.684-1.732 1.684H1.732C.778 14.348 0 13.59 0 12.664V1.684C0 .757.778 0 1.732 0zm12.681 6.62h4.516c.295 0 .533.233.533.52v2.79c0 .286-.238.518-.533.518h-4.516c-.295 0-.533-.232-.533-.519V7.14c0-.286.238-.519.533-.519zm3.983 1.038h-3.45V9.41h3.45V7.658zm-17.33-4.29h19.867V1.684c0-.355-.3-.646-.665-.646H1.732c-.365 0-.665.291-.665.646v1.684zm19.867 1.255H1.067v8.041c0 .355.3.647.665.647h18.536c.365 0 .665-.292.665-.647V4.623z"/>
</svg>
