<svg xmlns="http://www.w3.org/2000/svg" width="17" height="21" viewBox="0 0 17 21">
    <path fill="#FFF" stroke="#FFF" stroke-width=".2" d="M13.746 12.04c-.26-.177-.65-.133-.824.131-.173.264-.13.66.13.836 1.127.792 1.734 1.847 1.734 2.947 0 .703 0 2.858-6.286 2.858s-6.286-2.155-6.286-2.858c0-2.375 2.818-4.31 6.286-4.31 2.558 0 4.595-3.211 4.595-5.85S11.015 1 8.5 1C5.986 1 3.905 3.155 3.905 5.794c0 1.76.91 3.738 2.254 4.882C3.168 11.38 1 13.49 1 15.91 1 18.637 3.514 20 8.5 20c4.986 0 7.5-1.363 7.5-4.09-.043-1.452-.824-2.86-2.254-3.87zm-8.67-6.202c0-1.98 1.516-3.563 3.38-3.563 1.865 0 3.382 1.584 3.382 3.563 0 2.023-1.604 4.618-3.381 4.618-1.778 0-3.382-2.595-3.382-4.618z"/>
</svg>
